{"hits":{"hits":[{"created":"2019-05-10T00:00:00+00:00","updated":"2024-02-12T23:13:31.717371+00:00","metadata":{"control_number":1734056,"titles":[{"source":"arXiv","title":"FLASHForward: Plasma-wakefield accelerator science for high-average-power applications"}]},"id":"1734056","links":{"bibtex":"https://inspirehep.net/api/literature/1734056?format=bibtex","latex-eu":"https://inspirehep.net/api/literature/1734056?format=latex-eu","latex-us":"https://inspirehep.net/api/literature/1734056?format=latex-us","json":"https://inspirehep.net/api/literature/1734056?format=json","json-expanded":"https://inspirehep.net/api/literature/1734056?format=json-expanded","cv":"https://inspirehep.net/api/literature/1734056?format=cv","citations":"https://inspirehep.net/api/literature/?q=refersto%3Arecid%3A1734056"}},{"created":"2018-12-05T00:00:00+00:00","updated":"2024-12-13T11:01:31.756532+00:00","metadata":{"publication_info":[{"journal_volume":"909","artid":"60592","material":"publication","page_end":"83","year":2018,"journal_record":{"$ref":"https://inspirehep.net/api/journals/1613981"},"page_start":"80","journal_title":"Nucl.Instrum.Meth.A"},{"journal_volume":"909","page_end":"83","conference_record":{"$ref":"https://inspirehep.net/api/conferences/1638938"},"year":2018,"page_start":"80","journal_title":"Nucl.Instrum.Meth.A","cnum":"C17-09-24.3"}],"control_number":1706969,"titles":[{"source":"Elsevier B.V.","title":"FLASHForward X-2: Towards beam quality preservation in a plasma booster"},{"source":"Elsevier","title":"FLASHForward X-2: Towards beam quality preservation in a plasma booster"}]},"id":"1706969","links":{"bibtex":"https://inspirehep.net/api/literature/1706969?format=bibtex","latex-eu":"https://inspirehep.net/api/literature/1706969?format=latex-eu","latex-us":"https://inspirehep.net/api/literature/1706969?format=latex-us","json":"https://inspirehep.net/api/literature/1706969?format=json","json-expanded":"https://inspirehep.net/api/literature/1706969?format=json-expanded","cv":"https://inspirehep.net/api/literature/1706969?format=cv","citations":"https://inspirehep.net/api/literature/?q=refersto%3Arecid%3A1706969"}},{"created":"2021-11-17T03:16:05.824103+00:00","updated":"2025-05-28T08:52:36.968956+00:00","metadata":{"publication_info":[{"journal_volume":"EPS-HEP2021","artid":"880","conference_record":{"$ref":"https://inspirehep.net/api/conferences/1835249"},"year":2022,"journal_record":{"$ref":"https://inspirehep.net/api/journals/1213080"},"page_start":"880","journal_title":"PoS","cnum":"C21-07-26"},{"conference_record":{"$ref":"https://inspirehep.net/api/conferences/1835249"},"cnum":"C21-07-26"}],"control_number":1969894,"titles":[{"source":"SISSA","title":"Progress of the FLASHForward X-2 high-beam-quality, high-efficiency plasma-accelerator experiment"},{"source":"arXiv","title":"Progress of the FLASHForward X-2 high-beam-quality, high-efficiency plasma-accelerator experiment"}]},"id":"1969894","links":{"bibtex":"https://inspirehep.net/api/literature/1969894?format=bibtex","latex-eu":"https://inspirehep.net/api/literature/1969894?format=latex-eu","latex-us":"https://inspirehep.net/api/literature/1969894?format=latex-us","json":"https://inspirehep.net/api/literature/1969894?format=json","json-expanded":"https://inspirehep.net/api/literature/1969894?format=json-expanded","cv":"https://inspirehep.net/api/literature/1969894?format=cv","citations":"https://inspirehep.net/api/literature/?q=refersto%3Arecid%3A1969894"}}],"total":20},"links":{"self":"https://inspirehep.net/api/literature/?q=FLASHForward%20GeV%20plasma&size=3&page=1&fields=titles,publication_info","next":"https://inspirehep.net/api/literature/?q=FLASHForward%20GeV%20plasma&size=3&page=2&fields=titles,publication_info","bibtex":"https://inspirehep.net/api/literature/?q=FLASHForward%20GeV%20plasma&size=3&page=1&format=bibtex","latex-eu":"https://inspirehep.net/api/literature/?q=FLASHForward%20GeV%20plasma&size=3&page=1&format=latex-eu","latex-us":"https://inspirehep.net/api/literature/?q=FLASHForward%20GeV%20plasma&size=3&page=1&format=latex-us","json":"https://inspirehep.net/api/literature/?q=FLASHForward%20GeV%20plasma&size=3&page=1&fields=titles,publication_info&format=json","json-expanded":"https://inspirehep.net/api/literature/?q=FLASHForward%20GeV%20plasma&size=3&page=1&format=json-expanded","cv":"https://inspirehep.net/api/literature/?q=FLASHForward%20GeV%20plasma&size=3&page=1&format=cv"}}