{"hits":{"hits":[{"updated":"2024-04-26T16:28:30.607530+00:00","metadata":{"publication_info":[{"year":2023}],"control_number":2777534,"titles":[{"source":"Maryland U., College Park","title":"Multi-gev Laser Wakefield Acceleration in Optically Generated Plasma Waveguides"}]},"id":"2777534","created":"2024-04-16T09:32:26.477815+00:00","links":{"bibtex":"https://inspirehep.net/api/literature/2777534?format=bibtex","latex-eu":"https://inspirehep.net/api/literature/2777534?format=latex-eu","latex-us":"https://inspirehep.net/api/literature/2777534?format=latex-us","json":"https://inspirehep.net/api/literature/2777534?format=json","json-expanded":"https://inspirehep.net/api/literature/2777534?format=json-expanded","cv":"https://inspirehep.net/api/literature/2777534?format=cv","citations":"https://inspirehep.net/api/literature/?q=refersto%3Arecid%3A2777534"}},{"updated":"2025-04-16T19:07:51.743985+00:00","metadata":{"publication_info":[{"journal_volume":"1086","page_end":"183","conference_record":{"$ref":"https://inspirehep.net/api/conferences/979239"},"year":2009,"journal_record":{"$ref":"https://inspirehep.net/api/journals/1213302"},"page_start":"177","journal_issue":"1","journal_title":"AIP Conf.Proc.","parent_record":{"$ref":"https://inspirehep.net/api/literature/826226"},"cnum":"C08-07-27.1"}],"control_number":816507,"titles":[{"title":"Preparation for laser wakefield experiments driven by the Texas petawatt laser system"}]},"id":"816507","created":"2009-03-30T00:00:00+00:00","links":{"bibtex":"https://inspirehep.net/api/literature/816507?format=bibtex","latex-eu":"https://inspirehep.net/api/literature/816507?format=latex-eu","latex-us":"https://inspirehep.net/api/literature/816507?format=latex-us","json":"https://inspirehep.net/api/literature/816507?format=json","json-expanded":"https://inspirehep.net/api/literature/816507?format=json-expanded","cv":"https://inspirehep.net/api/literature/816507?format=cv","citations":"https://inspirehep.net/api/literature/?q=refersto%3Arecid%3A816507"}},{"updated":"2023-03-06T14:48:34.866378+00:00","metadata":{"publication_info":[{"journal_volume":"877","page_end":"182","conference_record":{"$ref":"https://inspirehep.net/api/conferences/977626"},"year":2006,"journal_record":{"$ref":"https://inspirehep.net/api/journals/1213302"},"page_start":"175","journal_issue":"1","journal_title":"AIP Conf.Proc.","parent_record":{"$ref":"https://inspirehep.net/api/literature/736744"},"cnum":"C06-07-10.2"}],"control_number":737316,"titles":[{"title":"Summary report of working group 6: Laser-plasma acceleration"},{"title":"LASER PLASMA"}]},"id":"737316","created":"2007-03-19T00:00:00+00:00","links":{"bibtex":"https://inspirehep.net/api/literature/737316?format=bibtex","latex-eu":"https://inspirehep.net/api/literature/737316?format=latex-eu","latex-us":"https://inspirehep.net/api/literature/737316?format=latex-us","json":"https://inspirehep.net/api/literature/737316?format=json","json-expanded":"https://inspirehep.net/api/literature/737316?format=json-expanded","cv":"https://inspirehep.net/api/literature/737316?format=cv","citations":"https://inspirehep.net/api/literature/?q=refersto%3Arecid%3A737316"}}],"total":243},"links":{"self":"https://inspirehep.net/api/literature/?q=laser%20wakefield%201%20GeV%2Fm&size=3&page=1&fields=titles,publication_info","next":"https://inspirehep.net/api/literature/?q=laser%20wakefield%201%20GeV%2Fm&size=3&page=2&fields=titles,publication_info","bibtex":"https://inspirehep.net/api/literature/?q=laser%20wakefield%201%20GeV%2Fm&size=3&page=1&format=bibtex","latex-eu":"https://inspirehep.net/api/literature/?q=laser%20wakefield%201%20GeV%2Fm&size=3&page=1&format=latex-eu","latex-us":"https://inspirehep.net/api/literature/?q=laser%20wakefield%201%20GeV%2Fm&size=3&page=1&format=latex-us","json":"https://inspirehep.net/api/literature/?q=laser%20wakefield%201%20GeV%2Fm&size=3&page=1&fields=titles,publication_info&format=json","json-expanded":"https://inspirehep.net/api/literature/?q=laser%20wakefield%201%20GeV%2Fm&size=3&page=1&format=json-expanded","cv":"https://inspirehep.net/api/literature/?q=laser%20wakefield%201%20GeV%2Fm&size=3&page=1&format=cv"}}