{"hits":{"hits":[{"metadata":{"publication_info":[{"journal_volume":"IPAC2025","artid":"TUPS115","conference_record":{"$ref":"https://inspirehep.net/api/conferences/2787725"},"year":2025,"journal_record":{"$ref":"https://inspirehep.net/api/journals/1960020"},"journal_title":"JACoW","cnum":"C25-06-01","conf_acronym":"IPAC2025"}],"control_number":3101002,"titles":[{"source":"JACOW","title":"Optimization of the driver energy deposition in plasma wakefield acceleration simulations by varying transverse offset of sextupole magnets"}]},"updated":"2026-01-12T18:20:24.521966+00:00","id":"3101002","created":"2026-01-12T18:20:24.115127+00:00","links":{"bibtex":"https://inspirehep.net/api/literature/3101002?format=bibtex","latex-eu":"https://inspirehep.net/api/literature/3101002?format=latex-eu","latex-us":"https://inspirehep.net/api/literature/3101002?format=latex-us","json":"https://inspirehep.net/api/literature/3101002?format=json","json-expanded":"https://inspirehep.net/api/literature/3101002?format=json-expanded","cv":"https://inspirehep.net/api/literature/3101002?format=cv","citations":"https://inspirehep.net/api/literature/?q=refersto%3Arecid%3A3101002"}},{"metadata":{"publication_info":[{"journal_volume":"IPAC2024","artid":"MOPR57","conference_record":{"$ref":"https://inspirehep.net/api/conferences/2786517"},"year":2024,"journal_record":{"$ref":"https://inspirehep.net/api/journals/1960020"},"journal_title":"JACoW","cnum":"C24-05-19","conf_acronym":"IPAC2024"}],"control_number":2813041,"titles":[{"source":"JACOW","title":"Automated emittance and energy gain optimization for plasma wakefield acceleration"}]},"updated":"2024-09-17T09:41:06.461024+00:00","id":"2813041","created":"2024-07-31T11:30:50.264593+00:00","links":{"bibtex":"https://inspirehep.net/api/literature/2813041?format=bibtex","latex-eu":"https://inspirehep.net/api/literature/2813041?format=latex-eu","latex-us":"https://inspirehep.net/api/literature/2813041?format=latex-us","json":"https://inspirehep.net/api/literature/2813041?format=json","json-expanded":"https://inspirehep.net/api/literature/2813041?format=json-expanded","cv":"https://inspirehep.net/api/literature/2813041?format=cv","citations":"https://inspirehep.net/api/literature/?q=refersto%3Arecid%3A2813041"}},{"metadata":{"publication_info":[{"artid":"MOPB075","conference_record":{"$ref":"https://inspirehep.net/api/conferences/1369181"},"year":2016,"parent_record":{"$ref":"https://inspirehep.net/api/literature/1480610"},"cnum":"C15-09-13.2","conf_acronym":"IBIC2015"}],"control_number":1450759,"titles":[{"title":"Diagnostics Challenges for FACET-II"}]},"updated":"2023-03-06T16:41:22.917924+00:00","id":"1450759","created":"2016-04-22T00:00:00+00:00","links":{"bibtex":"https://inspirehep.net/api/literature/1450759?format=bibtex","latex-eu":"https://inspirehep.net/api/literature/1450759?format=latex-eu","latex-us":"https://inspirehep.net/api/literature/1450759?format=latex-us","json":"https://inspirehep.net/api/literature/1450759?format=json","json-expanded":"https://inspirehep.net/api/literature/1450759?format=json-expanded","cv":"https://inspirehep.net/api/literature/1450759?format=cv","citations":"https://inspirehep.net/api/literature/?q=refersto%3Arecid%3A1450759"}}],"total":28},"links":{"self":"https://inspirehep.net/api/literature/?q=FACET-II%2010%20GeV%20plasma&size=3&page=1&fields=titles,publication_info","next":"https://inspirehep.net/api/literature/?q=FACET-II%2010%20GeV%20plasma&size=3&page=2&fields=titles,publication_info","bibtex":"https://inspirehep.net/api/literature/?q=FACET-II%2010%20GeV%20plasma&size=3&page=1&format=bibtex","latex-eu":"https://inspirehep.net/api/literature/?q=FACET-II%2010%20GeV%20plasma&size=3&page=1&format=latex-eu","latex-us":"https://inspirehep.net/api/literature/?q=FACET-II%2010%20GeV%20plasma&size=3&page=1&format=latex-us","json":"https://inspirehep.net/api/literature/?q=FACET-II%2010%20GeV%20plasma&size=3&page=1&fields=titles,publication_info&format=json","json-expanded":"https://inspirehep.net/api/literature/?q=FACET-II%2010%20GeV%20plasma&size=3&page=1&format=json-expanded","cv":"https://inspirehep.net/api/literature/?q=FACET-II%2010%20GeV%20plasma&size=3&page=1&format=cv"}}