{"hits":{"hits":[{"created":"1994-02-08T00:00:00+00:00","updated":"2023-03-10T01:30:47.847026+00:00","metadata":{"publication_info":[{"pubinfo_freetext":"In *Santa Monica 1987, Proceedings, Antiproton science and technology* 530-565.","page_end":"565","conference_record":{"$ref":"https://inspirehep.net/api/conferences/966678"},"page_start":"530","cnum":"C87-10-06.1"}],"control_number":258797,"titles":[{"title":"Initial laboratory propulsion testing"}]},"id":"258797","links":{"bibtex":"https://inspirehep.net/api/literature/258797?format=bibtex","latex-eu":"https://inspirehep.net/api/literature/258797?format=latex-eu","latex-us":"https://inspirehep.net/api/literature/258797?format=latex-us","json":"https://inspirehep.net/api/literature/258797?format=json","json-expanded":"https://inspirehep.net/api/literature/258797?format=json-expanded","cv":"https://inspirehep.net/api/literature/258797?format=cv","citations":"https://inspirehep.net/api/literature/?q=refersto%3Arecid%3A258797"}},{"created":"1994-02-08T00:00:00+00:00","updated":"2023-03-06T15:10:03.917517+00:00","metadata":{"publication_info":[{"pubinfo_freetext":"In *Santa Monica 1987, Proceedings, Antiproton science and technology* 566-573.","page_end":"573","conference_record":{"$ref":"https://inspirehep.net/api/conferences/966678"},"page_start":"566","cnum":"C87-10-06.1"}],"control_number":258789,"titles":[{"title":"Antimatter spacecraft propulsion experiments with current anti-proton production rates"}]},"id":"258789","links":{"bibtex":"https://inspirehep.net/api/literature/258789?format=bibtex","latex-eu":"https://inspirehep.net/api/literature/258789?format=latex-eu","latex-us":"https://inspirehep.net/api/literature/258789?format=latex-us","json":"https://inspirehep.net/api/literature/258789?format=json","json-expanded":"https://inspirehep.net/api/literature/258789?format=json-expanded","cv":"https://inspirehep.net/api/literature/258789?format=cv","citations":"https://inspirehep.net/api/literature/?q=refersto%3Arecid%3A258789"}},{"created":"2004-10-22T00:00:00+00:00","updated":"2025-09-30T13:19:24.562231+00:00","metadata":{"publication_info":[{"conference_record":{"$ref":"https://inspirehep.net/api/conferences/976457"},"cnum":"C04-04-20.1"}],"control_number":662432,"titles":[{"title":"Controlled antihydrogen propulsion for NASA's future in very deep space"},{"title":"ANTI-HYDROGEN"},{"source":"arXiv","title":"Controlled Antihydrogen Propulsion for NASA's Future in Very Deep Space"}]},"id":"662432","links":{"bibtex":"https://inspirehep.net/api/literature/662432?format=bibtex","latex-eu":"https://inspirehep.net/api/literature/662432?format=latex-eu","latex-us":"https://inspirehep.net/api/literature/662432?format=latex-us","json":"https://inspirehep.net/api/literature/662432?format=json","json-expanded":"https://inspirehep.net/api/literature/662432?format=json-expanded","cv":"https://inspirehep.net/api/literature/662432?format=cv","citations":"https://inspirehep.net/api/literature/?q=refersto%3Arecid%3A662432"}}],"total":5},"links":{"self":"https://inspirehep.net/api/literature/?q=antiproton%20annihilation%20propulsion&size=3&page=1&fields=titles,publication_info","next":"https://inspirehep.net/api/literature/?q=antiproton%20annihilation%20propulsion&size=3&page=2&fields=titles,publication_info","bibtex":"https://inspirehep.net/api/literature/?q=antiproton%20annihilation%20propulsion&size=3&page=1&format=bibtex","latex-eu":"https://inspirehep.net/api/literature/?q=antiproton%20annihilation%20propulsion&size=3&page=1&format=latex-eu","latex-us":"https://inspirehep.net/api/literature/?q=antiproton%20annihilation%20propulsion&size=3&page=1&format=latex-us","json":"https://inspirehep.net/api/literature/?q=antiproton%20annihilation%20propulsion&size=3&page=1&fields=titles,publication_info&format=json","json-expanded":"https://inspirehep.net/api/literature/?q=antiproton%20annihilation%20propulsion&size=3&page=1&format=json-expanded","cv":"https://inspirehep.net/api/literature/?q=antiproton%20annihilation%20propulsion&size=3&page=1&format=cv"}}