{"hits":{"hits":[{"id":"1829383","created":"2020-11-11T00:00:00+00:00","updated":"2026-04-08T11:28:25.391721+00:00","links":{"bibtex":"https://inspirehep.net/api/literature/1829383?format=bibtex","latex-eu":"https://inspirehep.net/api/literature/1829383?format=latex-eu","latex-us":"https://inspirehep.net/api/literature/1829383?format=latex-us","json":"https://inspirehep.net/api/literature/1829383?format=json","json-expanded":"https://inspirehep.net/api/literature/1829383?format=json-expanded","cv":"https://inspirehep.net/api/literature/1829383?format=cv","citations":"https://inspirehep.net/api/literature/?q=refersto%3Arecid%3A1829383"},"metadata":{"control_number":1829383,"titles":[{"source":"Harvard U. (main)","title":"Toward Antihydrogen Spectroscopy"}]}},{"id":"2913269","created":"2025-04-17T10:58:54.600536+00:00","updated":"2025-06-05T11:55:25.074907+00:00","links":{"bibtex":"https://inspirehep.net/api/literature/2913269?format=bibtex","latex-eu":"https://inspirehep.net/api/literature/2913269?format=latex-eu","latex-us":"https://inspirehep.net/api/literature/2913269?format=latex-us","json":"https://inspirehep.net/api/literature/2913269?format=json","json-expanded":"https://inspirehep.net/api/literature/2913269?format=json-expanded","cv":"https://inspirehep.net/api/literature/2913269?format=cv","citations":"https://inspirehep.net/api/literature/?q=refersto%3Arecid%3A2913269"},"metadata":{"publication_info":[{"year":2025}],"control_number":2913269,"titles":[{"source":"Swansea U.","title":"Towards a Precision Measurement of the 1S-2S Transition in Antihydrogen"}]}},{"id":"1667007","created":"2018-04-10T00:00:00+00:00","updated":"2023-03-06T21:49:03.847051+00:00","links":{"bibtex":"https://inspirehep.net/api/literature/1667007?format=bibtex","latex-eu":"https://inspirehep.net/api/literature/1667007?format=latex-eu","latex-us":"https://inspirehep.net/api/literature/1667007?format=latex-us","json":"https://inspirehep.net/api/literature/1667007?format=json","json-expanded":"https://inspirehep.net/api/literature/1667007?format=json-expanded","cv":"https://inspirehep.net/api/literature/1667007?format=cv","citations":"https://inspirehep.net/api/literature/?q=refersto%3Arecid%3A1667007"},"metadata":{"publication_info":[{"journal_volume":"50","artid":"184002","year":2017,"journal_issue":"18","journal_title":"J.Phys.B"},{"journal_volume":"51","artid":"099501","year":2018,"journal_issue":"9","journal_title":"J.Phys.B"}],"control_number":1667007,"titles":[{"title":"Aspects of 1S-2S spectroscopy of trapped antihydrogen atoms"}]}}],"total":36},"links":{"self":"https://inspirehep.net/api/literature/?q=antihydrogen%201S-2S%20spectroscopy&size=3&page=1&fields=titles,publication_info","next":"https://inspirehep.net/api/literature/?q=antihydrogen%201S-2S%20spectroscopy&size=3&page=2&fields=titles,publication_info","bibtex":"https://inspirehep.net/api/literature/?q=antihydrogen%201S-2S%20spectroscopy&size=3&page=1&format=bibtex","latex-eu":"https://inspirehep.net/api/literature/?q=antihydrogen%201S-2S%20spectroscopy&size=3&page=1&format=latex-eu","latex-us":"https://inspirehep.net/api/literature/?q=antihydrogen%201S-2S%20spectroscopy&size=3&page=1&format=latex-us","json":"https://inspirehep.net/api/literature/?q=antihydrogen%201S-2S%20spectroscopy&size=3&page=1&fields=titles,publication_info&format=json","json-expanded":"https://inspirehep.net/api/literature/?q=antihydrogen%201S-2S%20spectroscopy&size=3&page=1&format=json-expanded","cv":"https://inspirehep.net/api/literature/?q=antihydrogen%201S-2S%20spectroscopy&size=3&page=1&format=cv"}}