{"hits":{"hits":[{"id":"689295","metadata":{"publication_info":[{"journal_volume":"233","page_end":"102","conference_record":{"$ref":"https://inspirehep.net/api/conferences/1477472"},"year":2005,"page_start":"95","journal_title":"Nucl.Instrum.Meth.B","parent_record":{"$ref":"https://inspirehep.net/api/literature/1477693"},"cnum":"C04-09-01.3"}],"control_number":689295,"titles":[{"title":"Effects of collisions on antiprotonic atoms"},{"title":"ANTI-PROTONIC"}]},"updated":"2023-03-10T03:04:24.014234+00:00","created":"2005-08-09T00:00:00+00:00","links":{"bibtex":"https://inspirehep.net/api/literature/689295?format=bibtex","latex-eu":"https://inspirehep.net/api/literature/689295?format=latex-eu","latex-us":"https://inspirehep.net/api/literature/689295?format=latex-us","json":"https://inspirehep.net/api/literature/689295?format=json","json-expanded":"https://inspirehep.net/api/literature/689295?format=json-expanded","cv":"https://inspirehep.net/api/literature/689295?format=cv","citations":"https://inspirehep.net/api/literature/?q=refersto%3Arecid%3A689295"}},{"id":"1829383","metadata":{"control_number":1829383,"titles":[{"source":"Harvard U. (main)","title":"Toward Antihydrogen Spectroscopy"}]},"updated":"2026-04-08T11:28:25.391721+00:00","created":"2020-11-11T00:00:00+00:00","links":{"bibtex":"https://inspirehep.net/api/literature/1829383?format=bibtex","latex-eu":"https://inspirehep.net/api/literature/1829383?format=latex-eu","latex-us":"https://inspirehep.net/api/literature/1829383?format=latex-us","json":"https://inspirehep.net/api/literature/1829383?format=json","json-expanded":"https://inspirehep.net/api/literature/1829383?format=json-expanded","cv":"https://inspirehep.net/api/literature/1829383?format=cv","citations":"https://inspirehep.net/api/literature/?q=refersto%3Arecid%3A1829383"}},{"id":"702557","metadata":{"publication_info":[{"journal_volume":"796","page_end":"420","conference_record":{"$ref":"https://inspirehep.net/api/conferences/976569"},"year":2005,"journal_record":{"$ref":"https://inspirehep.net/api/journals/1213302"},"page_start":"417","journal_issue":"1","journal_title":"AIP Conf.Proc.","parent_record":{"$ref":"https://inspirehep.net/api/literature/707609"},"cnum":"C05-05-16.4"}],"control_number":702557,"titles":[{"title":"Detection of cold antihydrogen annihilation"},{"title":"ANTI-HYDROGEN"}]},"updated":"2023-03-06T14:06:32.391700+00:00","created":"2006-02-02T00:00:00+00:00","links":{"bibtex":"https://inspirehep.net/api/literature/702557?format=bibtex","latex-eu":"https://inspirehep.net/api/literature/702557?format=latex-eu","latex-us":"https://inspirehep.net/api/literature/702557?format=latex-us","json":"https://inspirehep.net/api/literature/702557?format=json","json-expanded":"https://inspirehep.net/api/literature/702557?format=json-expanded","cv":"https://inspirehep.net/api/literature/702557?format=cv","citations":"https://inspirehep.net/api/literature/?q=refersto%3Arecid%3A702557"}}],"total":15},"links":{"self":"https://inspirehep.net/api/literature/?q=ATRAP%20CPT%20antiproton&size=3&page=1&fields=titles,publication_info","next":"https://inspirehep.net/api/literature/?q=ATRAP%20CPT%20antiproton&size=3&page=2&fields=titles,publication_info","bibtex":"https://inspirehep.net/api/literature/?q=ATRAP%20CPT%20antiproton&size=3&page=1&format=bibtex","latex-eu":"https://inspirehep.net/api/literature/?q=ATRAP%20CPT%20antiproton&size=3&page=1&format=latex-eu","latex-us":"https://inspirehep.net/api/literature/?q=ATRAP%20CPT%20antiproton&size=3&page=1&format=latex-us","json":"https://inspirehep.net/api/literature/?q=ATRAP%20CPT%20antiproton&size=3&page=1&fields=titles,publication_info&format=json","json-expanded":"https://inspirehep.net/api/literature/?q=ATRAP%20CPT%20antiproton&size=3&page=1&format=json-expanded","cv":"https://inspirehep.net/api/literature/?q=ATRAP%20CPT%20antiproton&size=3&page=1&format=cv"}}