{"hits":{"hits":[{"metadata":{"publication_info":[{"journal_volume":"228","page_end":"36","conference_record":{"$ref":"https://inspirehep.net/api/conferences/1203209"},"year":2014,"journal_record":{"$ref":"https://inspirehep.net/api/journals/1214732"},"page_start":"31","journal_issue":"1-3","journal_title":"Hyperfine Interact.","parent_record":{"$ref":"https://inspirehep.net/api/literature/1323322"},"cnum":"C13-06-10.2"}],"control_number":1276582,"titles":[{"source":"arXiv","title":"Towards a high-precision measurement of the antiproton magnetic moment"}]},"updated":"2025-06-16T16:53:15.831739+00:00","id":"1276582","created":"2014-01-10T00:00:00+00:00","links":{"bibtex":"https://inspirehep.net/api/literature/1276582?format=bibtex","latex-eu":"https://inspirehep.net/api/literature/1276582?format=latex-eu","latex-us":"https://inspirehep.net/api/literature/1276582?format=latex-us","json":"https://inspirehep.net/api/literature/1276582?format=json","json-expanded":"https://inspirehep.net/api/literature/1276582?format=json-expanded","cv":"https://inspirehep.net/api/literature/1276582?format=cv","citations":"https://inspirehep.net/api/literature/?q=refersto%3Arecid%3A1276582"}},{"metadata":{"publication_info":[{"year":2021}],"control_number":2009873,"titles":[{"source":"CERN","title":"Challenging the Standard Model by high precision comparisons of the fundamental properties of antiprotons and protons"},{"source":"Leibniz U., Hannover","title":"Challenging the Standard Model by high precision comparisons of the fundamental properties of antiprotons and protons"}]},"updated":"2026-02-09T12:12:10.074407+00:00","id":"2009873","created":"2022-01-13T07:21:17.273958+00:00","links":{"bibtex":"https://inspirehep.net/api/literature/2009873?format=bibtex","latex-eu":"https://inspirehep.net/api/literature/2009873?format=latex-eu","latex-us":"https://inspirehep.net/api/literature/2009873?format=latex-us","json":"https://inspirehep.net/api/literature/2009873?format=json","json-expanded":"https://inspirehep.net/api/literature/2009873?format=json-expanded","cv":"https://inspirehep.net/api/literature/2009873?format=cv","citations":"https://inspirehep.net/api/literature/?q=refersto%3Arecid%3A2009873"}},{"metadata":{"control_number":1387611,"titles":[{"title":"Technical Design Report BASE"}]},"updated":"2025-06-16T17:08:08.363228+00:00","id":"1387611","created":"2015-08-12T00:00:00+00:00","links":{"bibtex":"https://inspirehep.net/api/literature/1387611?format=bibtex","latex-eu":"https://inspirehep.net/api/literature/1387611?format=latex-eu","latex-us":"https://inspirehep.net/api/literature/1387611?format=latex-us","json":"https://inspirehep.net/api/literature/1387611?format=json","json-expanded":"https://inspirehep.net/api/literature/1387611?format=json-expanded","cv":"https://inspirehep.net/api/literature/1387611?format=cv","citations":"https://inspirehep.net/api/literature/?q=refersto%3Arecid%3A1387611"}}],"total":28},"links":{"self":"https://inspirehep.net/api/literature/?q=BASE%20antiproton%20magnetic%20moment&size=3&page=1&fields=titles,publication_info","next":"https://inspirehep.net/api/literature/?q=BASE%20antiproton%20magnetic%20moment&size=3&page=2&fields=titles,publication_info","bibtex":"https://inspirehep.net/api/literature/?q=BASE%20antiproton%20magnetic%20moment&size=3&page=1&format=bibtex","latex-eu":"https://inspirehep.net/api/literature/?q=BASE%20antiproton%20magnetic%20moment&size=3&page=1&format=latex-eu","latex-us":"https://inspirehep.net/api/literature/?q=BASE%20antiproton%20magnetic%20moment&size=3&page=1&format=latex-us","json":"https://inspirehep.net/api/literature/?q=BASE%20antiproton%20magnetic%20moment&size=3&page=1&fields=titles,publication_info&format=json","json-expanded":"https://inspirehep.net/api/literature/?q=BASE%20antiproton%20magnetic%20moment&size=3&page=1&format=json-expanded","cv":"https://inspirehep.net/api/literature/?q=BASE%20antiproton%20magnetic%20moment&size=3&page=1&format=cv"}}