{"hits":{"hits":[{"updated":"2026-02-09T12:06:02.488123+00:00","links":{"bibtex":"https://inspirehep.net/api/literature/1976054?format=bibtex","latex-eu":"https://inspirehep.net/api/literature/1976054?format=latex-eu","latex-us":"https://inspirehep.net/api/literature/1976054?format=latex-us","json":"https://inspirehep.net/api/literature/1976054?format=json","json-expanded":"https://inspirehep.net/api/literature/1976054?format=json-expanded","cv":"https://inspirehep.net/api/literature/1976054?format=cv","citations":"https://inspirehep.net/api/literature/?q=refersto%3Arecid%3A1976054"},"created":"2021-11-26T07:47:47.161245+00:00","metadata":{"control_number":1976054,"titles":[{"source":"submitter","title":"Development for an improved comparison of proton-to-antiproton charge-to-mass ratio"}]},"id":"1976054"},{"updated":"2023-03-10T02:32:54.173737+00:00","links":{"bibtex":"https://inspirehep.net/api/literature/807577?format=bibtex","latex-eu":"https://inspirehep.net/api/literature/807577?format=latex-eu","latex-us":"https://inspirehep.net/api/literature/807577?format=latex-us","json":"https://inspirehep.net/api/literature/807577?format=json","json-expanded":"https://inspirehep.net/api/literature/807577?format=json-expanded","cv":"https://inspirehep.net/api/literature/807577?format=cv","citations":"https://inspirehep.net/api/literature/?q=refersto%3Arecid%3A807577"},"created":"2009-02-02T00:00:00+00:00","metadata":{"publication_info":[{"journal_volume":"1037","page_end":"147","conference_record":{"$ref":"https://inspirehep.net/api/conferences/979491"},"year":2008,"journal_record":{"$ref":"https://inspirehep.net/api/journals/1213302"},"page_start":"137","journal_issue":"1","journal_title":"AIP Conf.Proc.","parent_record":{"$ref":"https://inspirehep.net/api/literature/1721646"},"cnum":"C08-02-20"}],"control_number":807577,"titles":[{"title":"Determination of the antiproton-to-electron mass ratio by high precision laser spectroscopy of anti-He+"}]},"id":"807577"},{"updated":"2025-06-16T17:08:09.372149+00:00","links":{"bibtex":"https://inspirehep.net/api/literature/1387603?format=bibtex","latex-eu":"https://inspirehep.net/api/literature/1387603?format=latex-eu","latex-us":"https://inspirehep.net/api/literature/1387603?format=latex-us","json":"https://inspirehep.net/api/literature/1387603?format=json","json-expanded":"https://inspirehep.net/api/literature/1387603?format=json-expanded","cv":"https://inspirehep.net/api/literature/1387603?format=cv","citations":"https://inspirehep.net/api/literature/?q=refersto%3Arecid%3A1387603"},"created":"2015-08-12T00:00:00+00:00","metadata":{"publication_info":[{"journal_volume":"524","page_end":"199","year":2015,"journal_record":{"$ref":"https://inspirehep.net/api/journals/1214565"},"page_start":"196","journal_issue":"7564","journal_title":"Nature"}],"control_number":1387603,"titles":[{"title":"High-precision comparison of the antiproton-to-proton charge-to-mass ratio"}]},"id":"1387603"}],"total":34},"links":{"self":"https://inspirehep.net/api/literature/?q=antiproton%20proton%20mass%20ratio%20CPT&size=3&page=1&fields=titles,publication_info","next":"https://inspirehep.net/api/literature/?q=antiproton%20proton%20mass%20ratio%20CPT&size=3&page=2&fields=titles,publication_info","bibtex":"https://inspirehep.net/api/literature/?q=antiproton%20proton%20mass%20ratio%20CPT&size=3&page=1&format=bibtex","latex-eu":"https://inspirehep.net/api/literature/?q=antiproton%20proton%20mass%20ratio%20CPT&size=3&page=1&format=latex-eu","latex-us":"https://inspirehep.net/api/literature/?q=antiproton%20proton%20mass%20ratio%20CPT&size=3&page=1&format=latex-us","json":"https://inspirehep.net/api/literature/?q=antiproton%20proton%20mass%20ratio%20CPT&size=3&page=1&fields=titles,publication_info&format=json","json-expanded":"https://inspirehep.net/api/literature/?q=antiproton%20proton%20mass%20ratio%20CPT&size=3&page=1&format=json-expanded","cv":"https://inspirehep.net/api/literature/?q=antiproton%20proton%20mass%20ratio%20CPT&size=3&page=1&format=cv"}}