{"hits":{"hits":[{"updated":"2023-03-10T15:57:12.466835+00:00","links":{"bibtex":"https://inspirehep.net/api/literature/800360?format=bibtex","latex-eu":"https://inspirehep.net/api/literature/800360?format=latex-eu","latex-us":"https://inspirehep.net/api/literature/800360?format=latex-us","json":"https://inspirehep.net/api/literature/800360?format=json","json-expanded":"https://inspirehep.net/api/literature/800360?format=json-expanded","cv":"https://inspirehep.net/api/literature/800360?format=cv","citations":"https://inspirehep.net/api/literature/?q=refersto%3Arecid%3A800360"},"metadata":{"publication_info":[{"journal_volume":"599","page_end":"283","year":2009,"page_start":"275","journal_title":"Nucl.Instrum.Meth.A"}],"control_number":800360,"titles":[{"title":"A Liquid Xenon Positron Emission Tomograph for small animal imaging: First experimental results of a prototype cell"},{"source":"arXiv","title":"A liquid Xenon Positron Emission Tomograph for small animal imaging : first experimental results of a prototype cell"}]},"id":"800360","created":"2008-10-23T00:00:00+00:00"},{"updated":"2023-03-09T17:47:52.709704+00:00","links":{"bibtex":"https://inspirehep.net/api/literature/1500033?format=bibtex","latex-eu":"https://inspirehep.net/api/literature/1500033?format=latex-eu","latex-us":"https://inspirehep.net/api/literature/1500033?format=latex-us","json":"https://inspirehep.net/api/literature/1500033?format=json","json-expanded":"https://inspirehep.net/api/literature/1500033?format=json-expanded","cv":"https://inspirehep.net/api/literature/1500033?format=cv","citations":"https://inspirehep.net/api/literature/?q=refersto%3Arecid%3A1500033"},"metadata":{"publication_info":[{"journal_volume":"34","page_end":"82","conference_record":{"$ref":"https://inspirehep.net/api/conferences/1485254"},"year":2015,"journal_record":{"$ref":"https://inspirehep.net/api/journals/1423496"},"page_start":"72","journal_title":"Nucl.Theor.","parent_record":{"$ref":"https://inspirehep.net/api/literature/1485255"},"cnum":"C15-06-21.4"}],"control_number":1500033,"titles":[{"title":"Production and use of the radiopharmaceuticals ($^{18}$F-FDG and $^{18}$F-NaF) in nuclear medicine in Kazakhstan"}]},"id":"1500033","created":"2016-11-24T00:00:00+00:00"},{"updated":"2023-03-06T13:34:00.264102+00:00","links":{"bibtex":"https://inspirehep.net/api/literature/1647419?format=bibtex","latex-eu":"https://inspirehep.net/api/literature/1647419?format=latex-eu","latex-us":"https://inspirehep.net/api/literature/1647419?format=latex-us","json":"https://inspirehep.net/api/literature/1647419?format=json","json-expanded":"https://inspirehep.net/api/literature/1647419?format=json-expanded","cv":"https://inspirehep.net/api/literature/1647419?format=cv","citations":"https://inspirehep.net/api/literature/?q=refersto%3Arecid%3A1647419"},"metadata":{"control_number":1647419,"titles":[{"source":"arXiv","title":"Study of a Prototype VP-PET Imaging System Based on highly Pixelated CdZnTe Detectors"}]},"id":"1647419","created":"2018-01-11T00:00:00+00:00"}],"total":24},"links":{"self":"https://inspirehep.net/api/literature/?q=F-18%20positron%20emission%20tomography&size=3&page=1&fields=titles,publication_info","next":"https://inspirehep.net/api/literature/?q=F-18%20positron%20emission%20tomography&size=3&page=2&fields=titles,publication_info","bibtex":"https://inspirehep.net/api/literature/?q=F-18%20positron%20emission%20tomography&size=3&page=1&format=bibtex","latex-eu":"https://inspirehep.net/api/literature/?q=F-18%20positron%20emission%20tomography&size=3&page=1&format=latex-eu","latex-us":"https://inspirehep.net/api/literature/?q=F-18%20positron%20emission%20tomography&size=3&page=1&format=latex-us","json":"https://inspirehep.net/api/literature/?q=F-18%20positron%20emission%20tomography&size=3&page=1&fields=titles,publication_info&format=json","json-expanded":"https://inspirehep.net/api/literature/?q=F-18%20positron%20emission%20tomography&size=3&page=1&format=json-expanded","cv":"https://inspirehep.net/api/literature/?q=F-18%20positron%20emission%20tomography&size=3&page=1&format=cv"}}