{"hits":{"hits":[{"updated":"2023-03-06T14:46:39.821829+00:00","metadata":{"publication_info":[{"artid":"TUP008","conference_record":{"$ref":"https://inspirehep.net/api/conferences/1743827"},"year":2020,"parent_record":{"$ref":"https://inspirehep.net/api/literature/1807059"},"cnum":"C19-09-22.3","conf_acronym":"Cyclotrons2019"}],"control_number":1807106,"titles":[{"source":"JACoW","title":"The Cyclotron TR-FLEX at the Center for Radiopharmaceutical Cancer Research at Helmholtz-Zentrum Dresden-Rossendorf"}]},"created":"2020-07-16T00:00:00+00:00","links":{"bibtex":"https://inspirehep.net/api/literature/1807106?format=bibtex","latex-eu":"https://inspirehep.net/api/literature/1807106?format=latex-eu","latex-us":"https://inspirehep.net/api/literature/1807106?format=latex-us","json":"https://inspirehep.net/api/literature/1807106?format=json","json-expanded":"https://inspirehep.net/api/literature/1807106?format=json-expanded","cv":"https://inspirehep.net/api/literature/1807106?format=cv","citations":"https://inspirehep.net/api/literature/?q=refersto%3Arecid%3A1807106"},"id":"1807106"},{"updated":"2023-03-10T00:31:29.113324+00:00","metadata":{"publication_info":[{"journal_volume":"1023","artid":"012008","conference_record":{"$ref":"https://inspirehep.net/api/conferences/1673829"},"year":2018,"journal_record":{"$ref":"https://inspirehep.net/api/journals/1212279"},"journal_issue":"1","journal_title":"J.Phys.Conf.Ser.","parent_record":{"$ref":"https://inspirehep.net/api/literature/1674024"},"cnum":"C17-09-10.4"}],"control_number":1674237,"titles":[{"source":"IOP","title":"Status of Simulations for the Cyclotron Laboratory at the Institute for Nuclear Research and Nuclear Energy"}]},"created":"2018-05-22T00:00:00+00:00","links":{"bibtex":"https://inspirehep.net/api/literature/1674237?format=bibtex","latex-eu":"https://inspirehep.net/api/literature/1674237?format=latex-eu","latex-us":"https://inspirehep.net/api/literature/1674237?format=latex-us","json":"https://inspirehep.net/api/literature/1674237?format=json","json-expanded":"https://inspirehep.net/api/literature/1674237?format=json-expanded","cv":"https://inspirehep.net/api/literature/1674237?format=cv","citations":"https://inspirehep.net/api/literature/?q=refersto%3Arecid%3A1674237"},"id":"1674237"},{"updated":"2023-11-17T11:15:25.739963+00:00","metadata":{"publication_info":[{"journal_volume":"CYCLOTRONS2022","artid":"WEAO03","conference_record":{"$ref":"https://inspirehep.net/api/conferences/2720009"},"year":2023,"journal_record":{"$ref":"https://inspirehep.net/api/journals/1960020"},"journal_title":"JACoW","cnum":"C22-12-05.7","conf_acronym":"CYCLOTRONS2022"}],"control_number":2723715,"titles":[{"source":"JACOW","title":"Development of the Cyclone® Key: How Interoperability Leads to Compactness"}]},"created":"2023-11-17T11:15:24.718917+00:00","links":{"bibtex":"https://inspirehep.net/api/literature/2723715?format=bibtex","latex-eu":"https://inspirehep.net/api/literature/2723715?format=latex-eu","latex-us":"https://inspirehep.net/api/literature/2723715?format=latex-us","json":"https://inspirehep.net/api/literature/2723715?format=json","json-expanded":"https://inspirehep.net/api/literature/2723715?format=json-expanded","cv":"https://inspirehep.net/api/literature/2723715?format=cv","citations":"https://inspirehep.net/api/literature/?q=refersto%3Arecid%3A2723715"},"id":"2723715"}],"total":6},"links":{"self":"https://inspirehep.net/api/literature/?q=18F%20PET%20cyclotron&size=3&page=1&fields=titles,publication_info","next":"https://inspirehep.net/api/literature/?q=18F%20PET%20cyclotron&size=3&page=2&fields=titles,publication_info","bibtex":"https://inspirehep.net/api/literature/?q=18F%20PET%20cyclotron&size=3&page=1&format=bibtex","latex-eu":"https://inspirehep.net/api/literature/?q=18F%20PET%20cyclotron&size=3&page=1&format=latex-eu","latex-us":"https://inspirehep.net/api/literature/?q=18F%20PET%20cyclotron&size=3&page=1&format=latex-us","json":"https://inspirehep.net/api/literature/?q=18F%20PET%20cyclotron&size=3&page=1&fields=titles,publication_info&format=json","json-expanded":"https://inspirehep.net/api/literature/?q=18F%20PET%20cyclotron&size=3&page=1&format=json-expanded","cv":"https://inspirehep.net/api/literature/?q=18F%20PET%20cyclotron&size=3&page=1&format=cv"}}