{"hits":{"hits":[{"updated":"2025-01-22T12:58:05.588582+00:00","links":{"bibtex":"https://inspirehep.net/api/literature/1412122?format=bibtex","latex-eu":"https://inspirehep.net/api/literature/1412122?format=latex-eu","latex-us":"https://inspirehep.net/api/literature/1412122?format=latex-us","json":"https://inspirehep.net/api/literature/1412122?format=json","json-expanded":"https://inspirehep.net/api/literature/1412122?format=json-expanded","cv":"https://inspirehep.net/api/literature/1412122?format=cv","citations":"https://inspirehep.net/api/literature/?q=refersto%3Arecid%3A1412122"},"created":"2016-01-05T00:00:00+00:00","id":"1412122","metadata":{"publication_info":[{"journal_volume":"52","artid":"72","year":2016,"page_start":"72","journal_issue":"4","journal_title":"Eur.Phys.J.A"}],"control_number":1412122,"titles":[{"source":"arXiv","title":"Underground nuclear astrophysics: why and how"}]}},{"updated":"2024-05-07T08:34:44.710203+00:00","links":{"bibtex":"https://inspirehep.net/api/literature/1194174?format=bibtex","latex-eu":"https://inspirehep.net/api/literature/1194174?format=latex-eu","latex-us":"https://inspirehep.net/api/literature/1194174?format=latex-us","json":"https://inspirehep.net/api/literature/1194174?format=json","json-expanded":"https://inspirehep.net/api/literature/1194174?format=json-expanded","cv":"https://inspirehep.net/api/literature/1194174?format=cv","citations":"https://inspirehep.net/api/literature/?q=refersto%3Arecid%3A1194174"},"created":"2012-10-30T00:00:00+00:00","id":"1194174","metadata":{"publication_info":[{"journal_volume":"86","artid":"055801","year":2012,"journal_title":"Phys.Rev.C"},{"journal_volume":"88","artid":"029905","material":"erratum","year":2013,"journal_issue":"2","journal_title":"Phys.Rev.C"}],"control_number":1194174,"titles":[{"title":"Proton Capture on $^{17}O$ and its astrophysical implications"},{"source":"arXiv","title":"Proton Capture on ^{17}O and its astrophysical implications"}]}},{"updated":"2024-10-01T16:14:06.419954+00:00","links":{"bibtex":"https://inspirehep.net/api/literature/1756744?format=bibtex","latex-eu":"https://inspirehep.net/api/literature/1756744?format=latex-eu","latex-us":"https://inspirehep.net/api/literature/1756744?format=latex-us","json":"https://inspirehep.net/api/literature/1756744?format=json","json-expanded":"https://inspirehep.net/api/literature/1756744?format=json-expanded","cv":"https://inspirehep.net/api/literature/1756744?format=cv","citations":"https://inspirehep.net/api/literature/?q=refersto%3Arecid%3A1756744"},"created":"2019-10-01T00:00:00+00:00","id":"1756744","metadata":{"publication_info":[{"journal_volume":"987","artid":"164847","year":2021,"journal_title":"Nucl.Instrum.Meth.A"}],"control_number":1756744,"titles":[{"source":"Elsevier","title":"Demonstration of ThGEM-multiwire hybrid charge readout for directional dark matter searches"},{"source":"arXiv","title":"Demonstration of ThGEM-Multiwire Hybrid Charge Readout for Directional Dark Matter Searches"}]}}],"total":7},"links":{"self":"https://inspirehep.net/api/literature/?q=fluorine-18%20target%20yield&size=3&page=1&fields=titles,publication_info","next":"https://inspirehep.net/api/literature/?q=fluorine-18%20target%20yield&size=3&page=2&fields=titles,publication_info","bibtex":"https://inspirehep.net/api/literature/?q=fluorine-18%20target%20yield&size=3&page=1&format=bibtex","latex-eu":"https://inspirehep.net/api/literature/?q=fluorine-18%20target%20yield&size=3&page=1&format=latex-eu","latex-us":"https://inspirehep.net/api/literature/?q=fluorine-18%20target%20yield&size=3&page=1&format=latex-us","json":"https://inspirehep.net/api/literature/?q=fluorine-18%20target%20yield&size=3&page=1&fields=titles,publication_info&format=json","json-expanded":"https://inspirehep.net/api/literature/?q=fluorine-18%20target%20yield&size=3&page=1&format=json-expanded","cv":"https://inspirehep.net/api/literature/?q=fluorine-18%20target%20yield&size=3&page=1&format=cv"}}