{"hits":{"hits":[{"id":"2127595","metadata":{"publication_info":[{"year":2022}],"control_number":2127595,"titles":[{"source":"TEL","title":"Statistical analysis of classical and quantum measurements of free fall acceleration of antihydrogen for the GBAR experiment"}]},"updated":"2025-07-21T12:42:31.499224+00:00","created":"2022-07-29T08:13:23.176414+00:00","links":{"bibtex":"https://inspirehep.net/api/literature/2127595?format=bibtex","latex-eu":"https://inspirehep.net/api/literature/2127595?format=latex-eu","latex-us":"https://inspirehep.net/api/literature/2127595?format=latex-us","json":"https://inspirehep.net/api/literature/2127595?format=json","json-expanded":"https://inspirehep.net/api/literature/2127595?format=json-expanded","cv":"https://inspirehep.net/api/literature/2127595?format=cv","citations":"https://inspirehep.net/api/literature/?q=refersto%3Arecid%3A2127595"}},{"id":"1295571","metadata":{"publication_info":[{"journal_volume":"30","artid":"1460263","conference_record":{"$ref":"https://inspirehep.net/api/conferences/1288128"},"year":2014,"journal_record":{"$ref":"https://inspirehep.net/api/journals/1211646"},"journal_title":"Int.J.Mod.Phys.Conf.Ser.","parent_record":{"$ref":"https://inspirehep.net/api/literature/1295752"},"cnum":"C13-11-13"}],"control_number":1295571,"titles":[{"title":"The GBAR experiment"}]},"updated":"2023-03-07T01:48:57.815512+00:00","created":"2014-05-12T00:00:00+00:00","links":{"bibtex":"https://inspirehep.net/api/literature/1295571?format=bibtex","latex-eu":"https://inspirehep.net/api/literature/1295571?format=latex-eu","latex-us":"https://inspirehep.net/api/literature/1295571?format=latex-us","json":"https://inspirehep.net/api/literature/1295571?format=json","json-expanded":"https://inspirehep.net/api/literature/1295571?format=json-expanded","cv":"https://inspirehep.net/api/literature/1295571?format=cv","citations":"https://inspirehep.net/api/literature/?q=refersto%3Arecid%3A1295571"}},{"id":"2756480","metadata":{"publication_info":[{"year":2023}],"control_number":2756480,"titles":[{"source":"TEL","title":"Synthesis of antihydrogen from in-flight charge exchange of decelerated antiprotons in positronium for the GBAR experiment"},{"source":"CERN","title":"Synthesis of antihydrogen from in‐flight charge exchange of decelerated antiprotons in positronium for the GBAR experiment"}]},"updated":"2025-10-29T12:15:33.958615+00:00","created":"2024-02-08T09:44:20.364907+00:00","links":{"bibtex":"https://inspirehep.net/api/literature/2756480?format=bibtex","latex-eu":"https://inspirehep.net/api/literature/2756480?format=latex-eu","latex-us":"https://inspirehep.net/api/literature/2756480?format=latex-us","json":"https://inspirehep.net/api/literature/2756480?format=json","json-expanded":"https://inspirehep.net/api/literature/2756480?format=json-expanded","cv":"https://inspirehep.net/api/literature/2756480?format=cv","citations":"https://inspirehep.net/api/literature/?q=refersto%3Arecid%3A2756480"}}],"total":34},"links":{"self":"https://inspirehep.net/api/literature/?q=GBAR%20antihydrogen%20gravity&size=3&page=1&fields=titles,publication_info","next":"https://inspirehep.net/api/literature/?q=GBAR%20antihydrogen%20gravity&size=3&page=2&fields=titles,publication_info","bibtex":"https://inspirehep.net/api/literature/?q=GBAR%20antihydrogen%20gravity&size=3&page=1&format=bibtex","latex-eu":"https://inspirehep.net/api/literature/?q=GBAR%20antihydrogen%20gravity&size=3&page=1&format=latex-eu","latex-us":"https://inspirehep.net/api/literature/?q=GBAR%20antihydrogen%20gravity&size=3&page=1&format=latex-us","json":"https://inspirehep.net/api/literature/?q=GBAR%20antihydrogen%20gravity&size=3&page=1&fields=titles,publication_info&format=json","json-expanded":"https://inspirehep.net/api/literature/?q=GBAR%20antihydrogen%20gravity&size=3&page=1&format=json-expanded","cv":"https://inspirehep.net/api/literature/?q=GBAR%20antihydrogen%20gravity&size=3&page=1&format=cv"}}