{"hits":{"hits":[{"created":"2022-01-13T07:21:17.273958+00:00","updated":"2026-02-09T12:12:10.074407+00:00","id":"2009873","metadata":{"publication_info":[{"year":2021}],"control_number":2009873,"titles":[{"source":"CERN","title":"Challenging the Standard Model by high precision comparisons of the fundamental properties of antiprotons and protons"},{"source":"Leibniz U., Hannover","title":"Challenging the Standard Model by high precision comparisons of the fundamental properties of antiprotons and protons"}]},"links":{"bibtex":"https://inspirehep.net/api/literature/2009873?format=bibtex","latex-eu":"https://inspirehep.net/api/literature/2009873?format=latex-eu","latex-us":"https://inspirehep.net/api/literature/2009873?format=latex-us","json":"https://inspirehep.net/api/literature/2009873?format=json","json-expanded":"https://inspirehep.net/api/literature/2009873?format=json-expanded","cv":"https://inspirehep.net/api/literature/2009873?format=cv","citations":"https://inspirehep.net/api/literature/?q=refersto%3Arecid%3A2009873"}},{"created":"2013-05-08T00:00:00+00:00","updated":"2025-06-16T16:47:18.609961+00:00","id":"1232261","metadata":{"publication_info":[{"journal_volume":"723","page_end":"81","year":2013,"page_start":"78","journal_title":"Phys.Lett.B"}],"control_number":1232261,"titles":[{"source":"arXiv","title":"Demonstration of the Double Penning Trap Technique with a Single Proton"}]},"links":{"bibtex":"https://inspirehep.net/api/literature/1232261?format=bibtex","latex-eu":"https://inspirehep.net/api/literature/1232261?format=latex-eu","latex-us":"https://inspirehep.net/api/literature/1232261?format=latex-us","json":"https://inspirehep.net/api/literature/1232261?format=json","json-expanded":"https://inspirehep.net/api/literature/1232261?format=json-expanded","cv":"https://inspirehep.net/api/literature/1232261?format=cv","citations":"https://inspirehep.net/api/literature/?q=refersto%3Arecid%3A1232261"}},{"created":"2023-09-18T10:03:56.915527+00:00","updated":"2026-02-09T13:22:51.577030+00:00","id":"2698528","metadata":{"publication_info":[{"year":2023}],"control_number":2698528,"titles":[{"source":"Swansea U.","title":"A proton source in the ALPHA apparatus for precision measurements of antihydrogen and hydrogen"},{"source":"oatd.org","title":"A proton source in the ALPHA apparatus for precision measurements of antihydrogen and hydrogen"}]},"links":{"bibtex":"https://inspirehep.net/api/literature/2698528?format=bibtex","latex-eu":"https://inspirehep.net/api/literature/2698528?format=latex-eu","latex-us":"https://inspirehep.net/api/literature/2698528?format=latex-us","json":"https://inspirehep.net/api/literature/2698528?format=json","json-expanded":"https://inspirehep.net/api/literature/2698528?format=json-expanded","cv":"https://inspirehep.net/api/literature/2698528?format=cv","citations":"https://inspirehep.net/api/literature/?q=refersto%3Arecid%3A2698528"}}],"total":196},"links":{"self":"https://inspirehep.net/api/literature/?q=antiproton%20Penning%20trap&size=3&page=1&fields=titles,publication_info","next":"https://inspirehep.net/api/literature/?q=antiproton%20Penning%20trap&size=3&page=2&fields=titles,publication_info","bibtex":"https://inspirehep.net/api/literature/?q=antiproton%20Penning%20trap&size=3&page=1&format=bibtex","latex-eu":"https://inspirehep.net/api/literature/?q=antiproton%20Penning%20trap&size=3&page=1&format=latex-eu","latex-us":"https://inspirehep.net/api/literature/?q=antiproton%20Penning%20trap&size=3&page=1&format=latex-us","json":"https://inspirehep.net/api/literature/?q=antiproton%20Penning%20trap&size=3&page=1&fields=titles,publication_info&format=json","json-expanded":"https://inspirehep.net/api/literature/?q=antiproton%20Penning%20trap&size=3&page=1&format=json-expanded","cv":"https://inspirehep.net/api/literature/?q=antiproton%20Penning%20trap&size=3&page=1&format=cv"}}