{"hits":{"hits":[{"metadata":{"publication_info":[{"journal_volume":"21","page_end":"1724","conference_record":{"$ref":"https://inspirehep.net/api/conferences/981214"},"year":2011,"journal_record":{"$ref":"https://inspirehep.net/api/journals/1213547"},"page_start":"1721","journal_issue":"3","journal_title":"IEEE Trans.Appl.Supercond.","parent_record":{"$ref":"https://inspirehep.net/api/literature/1492003"},"cnum":"C10-08-01.3"}],"control_number":1498784,"titles":[{"source":"IEEE","title":"Design of a Superconducting Magnet System for the AEGIS Experiment at CERN"}]},"updated":"2023-03-06T15:12:28.944304+00:00","id":"1498784","created":"2016-11-18T00:00:00+00:00","links":{"bibtex":"https://inspirehep.net/api/literature/1498784?format=bibtex","latex-eu":"https://inspirehep.net/api/literature/1498784?format=latex-eu","latex-us":"https://inspirehep.net/api/literature/1498784?format=latex-us","json":"https://inspirehep.net/api/literature/1498784?format=json","json-expanded":"https://inspirehep.net/api/literature/1498784?format=json-expanded","cv":"https://inspirehep.net/api/literature/1498784?format=cv","citations":"https://inspirehep.net/api/literature/?q=refersto%3Arecid%3A1498784"}},{"metadata":{"publication_info":[{"journal_volume":"IPAC2024","artid":"WEPR75","conference_record":{"$ref":"https://inspirehep.net/api/conferences/2786517"},"year":2024,"journal_record":{"$ref":"https://inspirehep.net/api/journals/1960020"},"journal_title":"JACoW","cnum":"C24-05-19","conf_acronym":"IPAC2024"}],"control_number":2813189,"titles":[{"source":"JACOW","title":"Simulation studies for the confinement of antiprotons for the AEgIS experiment"}]},"updated":"2024-10-01T16:38:30.355201+00:00","id":"2813189","created":"2024-07-31T11:41:26.022248+00:00","links":{"bibtex":"https://inspirehep.net/api/literature/2813189?format=bibtex","latex-eu":"https://inspirehep.net/api/literature/2813189?format=latex-eu","latex-us":"https://inspirehep.net/api/literature/2813189?format=latex-us","json":"https://inspirehep.net/api/literature/2813189?format=json","json-expanded":"https://inspirehep.net/api/literature/2813189?format=json-expanded","cv":"https://inspirehep.net/api/literature/2813189?format=cv","citations":"https://inspirehep.net/api/literature/?q=refersto%3Arecid%3A2813189"}},{"metadata":{"control_number":1823500,"titles":[{"title":"Laser cooling and manipulation of antimatter in the AEgIS experiment"}]},"updated":"2025-07-21T16:57:39.127185+00:00","id":"1823500","created":"2020-10-19T00:00:00+00:00","links":{"bibtex":"https://inspirehep.net/api/literature/1823500?format=bibtex","latex-eu":"https://inspirehep.net/api/literature/1823500?format=latex-eu","latex-us":"https://inspirehep.net/api/literature/1823500?format=latex-us","json":"https://inspirehep.net/api/literature/1823500?format=json","json-expanded":"https://inspirehep.net/api/literature/1823500?format=json-expanded","cv":"https://inspirehep.net/api/literature/1823500?format=cv","citations":"https://inspirehep.net/api/literature/?q=refersto%3Arecid%3A1823500"}}],"total":43},"links":{"self":"https://inspirehep.net/api/literature/?q=AEgIS%20antiproton%20gravity&size=3&page=1&fields=titles,publication_info","next":"https://inspirehep.net/api/literature/?q=AEgIS%20antiproton%20gravity&size=3&page=2&fields=titles,publication_info","bibtex":"https://inspirehep.net/api/literature/?q=AEgIS%20antiproton%20gravity&size=3&page=1&format=bibtex","latex-eu":"https://inspirehep.net/api/literature/?q=AEgIS%20antiproton%20gravity&size=3&page=1&format=latex-eu","latex-us":"https://inspirehep.net/api/literature/?q=AEgIS%20antiproton%20gravity&size=3&page=1&format=latex-us","json":"https://inspirehep.net/api/literature/?q=AEgIS%20antiproton%20gravity&size=3&page=1&fields=titles,publication_info&format=json","json-expanded":"https://inspirehep.net/api/literature/?q=AEgIS%20antiproton%20gravity&size=3&page=1&format=json-expanded","cv":"https://inspirehep.net/api/literature/?q=AEgIS%20antiproton%20gravity&size=3&page=1&format=cv"}}