{"hits":{"hits":[{"updated":"2025-10-29T12:14:51.516040+00:00","created":"2017-08-28T00:00:00+00:00","links":{"bibtex":"https://inspirehep.net/api/literature/1620093?format=bibtex","latex-eu":"https://inspirehep.net/api/literature/1620093?format=latex-eu","latex-us":"https://inspirehep.net/api/literature/1620093?format=latex-us","json":"https://inspirehep.net/api/literature/1620093?format=json","json-expanded":"https://inspirehep.net/api/literature/1620093?format=json-expanded","cv":"https://inspirehep.net/api/literature/1620093?format=cv","citations":"https://inspirehep.net/api/literature/?q=refersto%3Arecid%3A1620093"},"metadata":{"publication_info":[{"year":2014}],"control_number":1620093,"titles":[{"source":"Calgary U.","title":"Probing Trapped Antihydrogen. In Situ Diagnostics and Observations of Quantum Transitions"},{"source":"submitter","title":"Probing Trapped Antihydrogen: In Situ Diagnostics and Observations of Quantum Transitions"}]},"id":"1620093"},{"updated":"2023-03-06T21:54:57.853162+00:00","created":"2022-09-05T15:03:56.019927+00:00","links":{"bibtex":"https://inspirehep.net/api/literature/2146722?format=bibtex","latex-eu":"https://inspirehep.net/api/literature/2146722?format=latex-eu","latex-us":"https://inspirehep.net/api/literature/2146722?format=latex-us","json":"https://inspirehep.net/api/literature/2146722?format=json","json-expanded":"https://inspirehep.net/api/literature/2146722?format=json-expanded","cv":"https://inspirehep.net/api/literature/2146722?format=cv","citations":"https://inspirehep.net/api/literature/?q=refersto%3Arecid%3A2146722"},"metadata":{"publication_info":[{"journal_volume":"17","artid":"C08026","year":2022,"journal_record":{"$ref":"https://inspirehep.net/api/journals/1212215"},"journal_issue":"08","journal_title":"JINST"},{"conference_record":{"$ref":"https://inspirehep.net/api/conferences/1861822"},"cnum":"C21-09-12.1"}],"control_number":2146722,"titles":[{"source":"IOP","title":"Precision antihydrogen annihilation reconstructions using the ALPHA-g detector"}]},"id":"2146722"},{"updated":"2021-06-26T06:39:09.623353+00:00","created":"2004-10-13T00:00:00+00:00","links":{"bibtex":"https://inspirehep.net/api/literature/661641?format=bibtex","latex-eu":"https://inspirehep.net/api/literature/661641?format=latex-eu","latex-us":"https://inspirehep.net/api/literature/661641?format=latex-us","json":"https://inspirehep.net/api/literature/661641?format=json","json-expanded":"https://inspirehep.net/api/literature/661641?format=json-expanded","cv":"https://inspirehep.net/api/literature/661641?format=cv","citations":"https://inspirehep.net/api/literature/?q=refersto%3Arecid%3A661641"},"metadata":{"control_number":661641,"titles":[{"title":"The ALPHA Collaboration Antihydrogen Laser PHysics Apparatus"},{"title":"ANTI-HYDROGEN"},{"source":"arXiv","title":"The ALPHA Collaboration Antihydrogen Laser PHysics Apparatus."}]},"id":"661641"}],"total":191},"links":{"self":"https://inspirehep.net/api/literature/?q=ALPHA%20antihydrogen&size=3&page=1&fields=titles,publication_info","next":"https://inspirehep.net/api/literature/?q=ALPHA%20antihydrogen&size=3&page=2&fields=titles,publication_info","bibtex":"https://inspirehep.net/api/literature/?q=ALPHA%20antihydrogen&size=3&page=1&format=bibtex","latex-eu":"https://inspirehep.net/api/literature/?q=ALPHA%20antihydrogen&size=3&page=1&format=latex-eu","latex-us":"https://inspirehep.net/api/literature/?q=ALPHA%20antihydrogen&size=3&page=1&format=latex-us","json":"https://inspirehep.net/api/literature/?q=ALPHA%20antihydrogen&size=3&page=1&fields=titles,publication_info&format=json","json-expanded":"https://inspirehep.net/api/literature/?q=ALPHA%20antihydrogen&size=3&page=1&format=json-expanded","cv":"https://inspirehep.net/api/literature/?q=ALPHA%20antihydrogen&size=3&page=1&format=cv"}}